0 0.42734375 0.4671875 0.03984375 0.05390625
0 0.46484375 0.584375 0.0484375 0.0625
1 0.48984375 0.4140625 0.0484375 0.06484375
1 0.51640625 0.57578125 0.0484375 0.06484375
1 0.46796875 0.34765625 0.0421875 0.059375
1 0.3484375 0.39921875 0.0375 0.05
1 0.3328125 0.5078125 0.04140625 0.05
1 0.3984375 0.54921875 0.0453125 0.05859375
1 0.340625 0.6046875 0.0390625 0.0515625