1 0.35 0.36015625 0.040625 0.05078125
1 0.33828125 0.4421875 0.04765625 0.06328125
1 0.39296875 0.50390625 0.04453125 0.05546875
1 0.39453125 0.6390625 0.046875 0.06171875
1 0.53046875 0.4671875 0.05 0.06875
1 0.51953125 0.33515625 0.04765625 0.0640625
0 0.42109375 0.37578125 0.0484375 0.065625
0 0.35390625 0.578125 0.0390625 0.05078125