1 0.5203125 0.3359375 0.046875 0.06015625
1 0.53203125 0.46640625 0.05078125 0.06953125
1 0.5515625 0.58671875 0.05 0.06484375
1 0.40546875 0.6765625 0.05 0.06640625
0 0.33828125 0.56875 0.04765625 0.0703125
0 0.49609375 0.5375 0.04375 0.059375
0 0.43515625 0.4375 0.046875 0.06171875