1 0.48984375 0.3828125 0.0390625 0.0515625
1 0.40625 0.45078125 0.0484375 0.06484375
1 0.4625 0.4921875 0.04296875 0.0546875
1 0.49921875 0.56171875 0.053125 0.06640625
1 0.45234375 0.603125 0.0453125 0.0625