0 0.4359375 0.33046875 0.03984375 0.0578125
1 0.4703125 0.409375 0.04609375 0.0625
1 0.52734375 0.38203125 0.040625 0.05390625
1 0.5328125 0.47109375 0.04296875 0.05703125
1 0.53671875 0.571875 0.0515625 0.0671875
1 0.4796875 0.59296875 0.05546875 0.06484375