0 0.52109375 0.5984375 0.05234375 0.0625
0 0.44453125 0.39765625 0.04609375 0.0625
1 0.5390625 0.43515625 0.04921875 0.0609375
1 0.47109375 0.471875 0.04453125 0.06328125
1 0.4515625 0.58671875 0.05078125 0.07109375
1 0.384375 0.5328125 0.04609375 0.0578125