0 0.509375 0.59921875 0.05 0.0703125
0 0.38984375 0.61171875 0.04609375 0.065625
1 0.3140625 0.36171875 0.04453125 0.06328125
1 0.40390625 0.4546875 0.0484375 0.06953125
1 0.48671875 0.45390625 0.040625 0.0578125
1 0.3359375 0.52734375 0.040625 0.0546875
1 0.32421875 0.62578125 0.04375 0.06015625