0 0.37890625 0.51328125 0.05 0.059375
0 0.37109375 0.584375 0.0484375 0.0625
0 0.434375 0.6265625 0.05234375 0.06796875
0 0.48359375 0.53359375 0.046875 0.06484375
0 0.534375 0.5828125 0.05 0.06640625
1 0.5140625 0.44140625 0.040625 0.05625
1 0.5421875 0.35234375 0.046875 0.06015625
1 0.465625 0.40390625 0.0515625 0.06328125
1 0.4328125 0.45703125 0.05703125 0.065625
1 0.38984375 0.3953125 0.04921875 0.0625