1 0.46796875 0.6140625 0.0484375 0.0640625
1 0.465625 0.553125 0.05078125 0.0578125
1 0.50625 0.41875 0.05078125 0.07109375
0 0.45625 0.43671875 0.05 0.0703125
0 0.39140625 0.4578125 0.05078125 0.06796875
0 0.384375 0.5515625 0.0546875 0.06875