1 0.5125 0.415625 0.05 0.06171875
1 0.43671875 0.36171875 0.0515625 0.0640625
1 0.409375 0.4578125 0.040625 0.046875
1 0.4515625 0.5828125 0.04765625 0.0609375
1 0.5265625 0.57890625 0.0515625 0.06484375
1 0.3640625 0.675 0.046875 0.06171875
0 0.4 0.59921875 0.04609375 0.0609375
0 0.32890625 0.5609375 0.0421875 0.053125