1 0.50546875 0.41875 0.0515625 0.06875
1 0.4703125 0.61328125 0.04765625 0.0640625
1 0.4375 0.515625 0.04296875 0.04921875
0 0.4359375 0.45703125 0.053125 0.06484375
0 0.371875 0.40078125 0.04296875 0.05859375