0 0.50546875 0.45546875 0.04375 0.0625
0 0.47109375 0.54453125 0.04140625 0.0578125
1 0.40546875 0.35546875 0.04609375 0.06171875
1 0.384375 0.4734375 0.0484375 0.0671875
0 0.38203125 0.56953125 0.0484375 0.06640625
1 0.42109375 0.61796875 0.05 0.06484375