1 0.4296875 0.6140625 0.04609375 0.059375
1 0.5296875 0.590625 0.040625 0.05703125
1 0.51328125 0.440625 0.04140625 0.05859375
1 0.4671875 0.40390625 0.0484375 0.06953125
0 0.484375 0.53359375 0.0484375 0.06328125