1 0.46171875 0.38671875 0.0421875 0.0625
1 0.38359375 0.52890625 0.03984375 0.05546875
1 0.475 0.5921875 0.04375 0.06015625
0 0.32734375 0.4359375 0.04296875 0.05703125
0 0.390625 0.375 0.04609375 0.06171875
0 0.4625 0.5203125 0.03671875 0.05390625
0 0.37421875 0.634375 0.05 0.0640625