0 0.475 0.53671875 0.04609375 0.06015625
0 0.51015625 0.60078125 0.0515625 0.06640625
1 0.3125 0.3625 0.0453125 0.0625
1 0.34765625 0.48203125 0.04140625 0.0609375
1 0.4109375 0.4390625 0.0484375 0.06796875
1 0.41484375 0.36953125 0.0515625 0.06484375
1 0.4890625 0.45390625 0.040625 0.0578125