1 0.45625 0.61796875 0.0484375 0.06015625
1 0.5 0.4890625 0.040625 0.05
1 0.403125 0.45859375 0.04609375 0.06328125
0 0.328125 0.48046875 0.04609375 0.06640625
0 0.3578125 0.58671875 0.0390625 0.05625