0 0.415625 0.6203125 0.0421875 0.05625
0 0.49609375 0.303125 0.03984375 0.0578125
1 0.38125 0.43203125 0.0453125 0.053125
1 0.3875 0.5203125 0.04375 0.06015625
1 0.55859375 0.359375 0.0421875 0.05390625
1 0.553125 0.4609375 0.0515625 0.06640625
1 0.58671875 0.5546875 0.04765625 0.065625
1 0.58359375 0.66953125 0.046875 0.06484375