0 0.32109375 0.42109375 0.0453125 0.06328125
0 0.38046875 0.38125 0.0515625 0.06640625
1 0.41953125 0.59296875 0.04921875 0.06484375
1 0.4875 0.56796875 0.04765625 0.06484375
1 0.5359375 0.63359375 0.05078125 0.065625