1 0.48203125 0.615625 0.05234375 0.0703125
1 0.4546875 0.38671875 0.04609375 0.06484375
1 0.37265625 0.4953125 0.0484375 0.0625
0 0.39453125 0.38984375 0.03828125 0.0578125
0 0.3859375 0.596875 0.04921875 0.06171875