1 0.56015625 0.3578125 0.040625 0.05859375
1 0.5875 0.553125 0.04921875 0.0625
1 0.5859375 0.67109375 0.04296875 0.06328125
1 0.3796875 0.42890625 0.04296875 0.05625
1 0.3890625 0.52265625 0.0453125 0.059375
0 0.415625 0.61953125 0.04375 0.0609375