0 0.37734375 0.57578125 0.04296875 0.05859375
0 0.46171875 0.51640625 0.05 0.06953125
0 0.43359375 0.4359375 0.04296875 0.065625
1 0.37265625 0.34921875 0.04609375 0.06015625
1 0.35625 0.4328125 0.04296875 0.0546875
1 0.5203125 0.33203125 0.04609375 0.0609375