1 0.4515625 0.4703125 0.03828125 0.0546875
1 0.38515625 0.47109375 0.0515625 0.06484375
1 0.56953125 0.521875 0.04921875 0.06640625
1 0.40546875 0.35390625 0.04453125 0.06171875
0 0.46640625 0.396875 0.0484375 0.0578125
0 0.50390625 0.4546875 0.04375 0.0578125
0 0.39296875 0.5328125 0.0484375 0.05703125
0 0.50859375 0.61875 0.05078125 0.06640625