1 0.484375 0.3796875 0.04296875 0.05546875
1 0.4625 0.48671875 0.040625 0.053125
1 0.565625 0.628125 0.05 0.06171875
1 0.36328125 0.4828125 0.04765625 0.06015625
1 0.38359375 0.37421875 0.04921875 0.06015625
0 0.37265625 0.571875 0.04765625 0.0625
0 0.540625 0.45703125 0.0375 0.05
0 0.51484375 0.584375 0.04296875 0.05625