1 0.44453125 0.62265625 0.04921875 0.06484375
0 0.40390625 0.58203125 0.0484375 0.06328125
1 0.43515625 0.515625 0.04609375 0.06171875
1 0.4984375 0.4953125 0.04375 0.05703125
0 0.534375 0.4265625 0.05 0.0671875
0 0.49296875 0.56875 0.053125 0.06796875
0 0.3796875 0.49140625 0.04609375 0.06171875