0 0.3546875 0.578125 0.040625 0.05
0 0.42109375 0.37578125 0.046875 0.0625
0 0.42890625 0.4640625 0.0390625 0.05078125
1 0.34921875 0.359375 0.040625 0.04609375
1 0.3375 0.44375 0.0453125 0.06015625
1 0.39453125 0.50390625 0.0421875 0.05859375
1 0.5265625 0.46875 0.05078125 0.06875
1 0.51953125 0.334375 0.04765625 0.06328125