1 0.35859375 0.41953125 0.046875 0.0609375
1 0.47734375 0.54609375 0.05078125 0.06484375
1 0.46796875 0.65078125 0.04140625 0.0578125
1 0.38359375 0.66796875 0.040625 0.05703125
1 0.41875 0.57734375 0.04609375 0.06328125
0 0.33984375 0.55390625 0.03828125 0.05859375
0 0.41484375 0.47109375 0.046875 0.05703125