1 0.471875 0.61796875 0.04921875 0.06640625
1 0.40859375 0.628125 0.04375 0.0671875
1 0.415625 0.5265625 0.04375 0.05078125
1 0.36484375 0.5578125 0.04296875 0.06015625
1 0.49765625 0.41875 0.04140625 0.06015625
0 0.3796875 0.3859375 0.04921875 0.06015625