0 0.4375 0.440625 0.04140625 0.0578125
0 0.40546875 0.58125 0.04921875 0.06796875
1 0.44296875 0.5296875 0.0515625 0.0671875
1 0.36796875 0.3578125 0.04375 0.06015625
1 0.48125 0.6265625 0.040625 0.0578125