0 0.4953125 0.60078125 0.04453125 0.06015625
0 0.453125 0.51484375 0.0515625 0.06640625
0 0.38203125 0.35546875 0.04453125 0.06171875
1 0.4515625 0.39921875 0.05234375 0.06953125
1 0.3921875 0.43984375 0.0515625 0.0625
1 0.35703125 0.54375 0.0515625 0.06171875