1 0.3359375 0.50546875 0.0359375 0.04765625
1 0.51640625 0.57578125 0.04609375 0.0625
1 0.48984375 0.41328125 0.04609375 0.06328125
1 0.46875 0.34765625 0.04296875 0.06015625
0 0.42734375 0.46640625 0.0375 0.05390625
0 0.465625 0.58515625 0.04609375 0.065625