1 0.55859375 0.3609375 0.040625 0.05546875
1 0.40390625 0.4953125 0.040625 0.0546875
1 0.50546875 0.55546875 0.0421875 0.065625
1 0.41015625 0.60234375 0.04375 0.06171875
1 0.5828125 0.6703125 0.04453125 0.065625
0 0.4546875 0.41015625 0.04609375 0.06484375
0 0.4015625 0.346875 0.05390625 0.065625
0 0.49609375 0.303125 0.04296875 0.05390625