1 0.5203125 0.528125 0.05234375 0.06484375
1 0.5125 0.39296875 0.04296875 0.05859375
1 0.4078125 0.52890625 0.0515625 0.0640625
1 0.38515625 0.678125 0.0515625 0.06328125
0 0.43046875 0.4015625 0.0421875 0.05078125
0 0.346875 0.38046875 0.04609375 0.05625