1 0.34921875 0.36015625 0.040625 0.04921875
1 0.51953125 0.334375 0.0484375 0.06328125
1 0.5265625 0.46875 0.05078125 0.0671875
1 0.44296875 0.59453125 0.04765625 0.06171875
1 0.33828125 0.44296875 0.04375 0.06328125
0 0.41953125 0.3765625 0.0515625 0.06484375
0 0.4265625 0.46796875 0.040625 0.05546875
0 0.3609375 0.575 0.0421875 0.06328125
0 0.484375 0.5640625 0.0453125 0.06328125