1 0.4265625 0.62421875 0.04765625 0.0640625
1 0.47890625 0.65703125 0.04609375 0.0515625
1 0.496875 0.5421875 0.05234375 0.065625
1 0.44296875 0.48203125 0.05234375 0.06796875
1 0.53984375 0.48515625 0.0484375 0.06171875
1 0.50546875 0.38828125 0.040625 0.053125
1 0.40390625 0.36328125 0.05 0.06015625
0 0.38046875 0.42109375 0.05078125 0.06015625
0 0.41953125 0.56015625 0.04765625 0.06328125