1 0.40234375 0.45625 0.04765625 0.06796875
1 0.4859375 0.453125 0.040625 0.059375
1 0.33046875 0.43671875 0.05078125 0.0609375
1 0.3140625 0.3609375 0.0453125 0.06328125
1 0.33671875 0.52578125 0.04140625 0.05390625
1 0.3234375 0.6265625 0.0421875 0.06015625
0 0.38828125 0.6125 0.05078125 0.0625
0 0.51015625 0.6 0.05 0.071875