1 0.46796875 0.34765625 0.0421875 0.06015625
1 0.48984375 0.4109375 0.0453125 0.059375
1 0.515625 0.57421875 0.0484375 0.06484375
1 0.35234375 0.6015625 0.046875 0.06328125
1 0.321875 0.4953125 0.03984375 0.05703125
0 0.35390625 0.37890625 0.040625 0.04921875
0 0.4125 0.64140625 0.05234375 0.06328125