1 0.56796875 0.42578125 0.04765625 0.0625
1 0.46015625 0.59609375 0.0453125 0.06015625
1 0.35703125 0.54921875 0.04609375 0.0625
0 0.41171875 0.4328125 0.0484375 0.0671875
0 0.4890625 0.47734375 0.053125 0.06875