0 0.528125 0.4109375 0.04921875 0.06328125
0 0.31875 0.43984375 0.04609375 0.06171875
0 0.36796875 0.51171875 0.04609375 0.06875
1 0.490625 0.4875 0.040625 0.05703125
1 0.42578125 0.50078125 0.04765625 0.065625
1 0.3515625 0.603125 0.0359375 0.05
1 0.496875 0.6109375 0.0484375 0.0640625
1 0.4703125 0.671875 0.03984375 0.05