1 0.40625 0.35625 0.04609375 0.0625
1 0.54296875 0.41953125 0.040625 0.05546875
1 0.475 0.503125 0.0515625 0.065625
1 0.50078125 0.56328125 0.05234375 0.06484375
0 0.44609375 0.4125 0.0515625 0.06484375
0 0.39453125 0.56484375 0.040625 0.05703125