0 0.5203125 0.64375 0.04296875 0.05546875
0 0.50546875 0.45625 0.0421875 0.06015625
0 0.46171875 0.40234375 0.04140625 0.05546875
1 0.52734375 0.3484375 0.03984375 0.0578125
1 0.56953125 0.521875 0.0484375 0.0671875
1 0.4515625 0.47109375 0.0359375 0.05
0 0.43515625 0.584375 0.040625 0.05546875