1 0.453125 0.375 0.0421875 0.06171875
1 0.4171875 0.59609375 0.0515625 0.0640625
0 0.36640625 0.45 0.0484375 0.06796875
0 0.4375 0.46796875 0.04609375 0.0640625
0 0.5546875 0.52578125 0.05 0.06640625
0 0.3859375 0.52421875 0.04609375 0.06484375
0 0.35546875 0.6234375 0.05078125 0.0671875