0 0.34375 0.47890625 0.0375 0.05546875
0 0.3734375 0.378125 0.046875 0.065625
0 0.39921875 0.58515625 0.040625 0.05625
0 0.3984375 0.703125 0.0515625 0.0671875
1 0.43359375 0.38046875 0.040625 0.05546875
1 0.38984375 0.50625 0.04609375 0.06171875