1 0.50546875 0.45078125 0.046875 0.06171875
1 0.44140625 0.4109375 0.0390625 0.05546875
1 0.378125 0.4359375 0.046875 0.0578125
1 0.42421875 0.48125 0.0375 0.0515625
1 0.3609375 0.51328125 0.0375 0.05078125
1 0.4625 0.54609375 0.04765625 0.06171875
1 0.54453125 0.5734375 0.0375 0.053125
1 0.47734375 0.62890625 0.040625 0.053125