0 0.38203125 0.42109375 0.05078125 0.0609375
0 0.359375 0.51640625 0.04140625 0.053125
1 0.40234375 0.36015625 0.04765625 0.0609375
1 0.49453125 0.3046875 0.03984375 0.046875
1 0.50625 0.38828125 0.0390625 0.05234375
1 0.44765625 0.47578125 0.0484375 0.06796875
1 0.5390625 0.48515625 0.04921875 0.0625
1 0.496875 0.54140625 0.0484375 0.0640625
1 0.43984375 0.61484375 0.04453125 0.053125
1 0.509375 0.6421875 0.04921875 0.06015625